…
```
## Error: 'data/Paleogene_crocs.csv' does not exist in current working directory ('C:/Users/willg/OneDrive - Syracuse University/Syracuse').
```

``` r
# Trim to metadata
metadata <- metadata[1:23, ]

# Print
metadata
```

```
## # A tibble: 23 × 2
##    `Data Provider`   `The Paleobiology Database`                                                                
##    <chr>             <chr>                                                                                      
##  1 Data Source       The Paleobiology Database                                                                  
##  2 Data License      Creative Commons CC0                                                                       
##  3 License URL       https://creativecommons.org/publicdomain/zero/1.0/                                         
##  4 Documentation URL http://paleobiodb.org/data1.2/occs/list_doc.html                                           
##  5 Data URL          http://paleobiodb.org/data1.2/occs/list.csv?datainfo&rowcount&base_name=Crocodylia&interva…
##  6 Access Time       Fri 2025-02-21 14:41:31 GMT                                                                
##  7 Title             PBDB Data Service                                                                          
##  8 Parameters:       <NA>                                                                                       
##  9 <NA>              base_name,Crocodylia                                                                       
## 10 <NA>              pgm,gplates,scotese,seton                                                                  
## # ℹ 13 more rows
```
…
