Ten simple rules to follow when cleaning occurrence data in palaeobiology
…
## Warning: One or more parsing issues, call `problems()` on your data frame for details,
## e.g.:
##   dat <- vroom(...)
##   problems(dat)

Code

# Trim to metadata
metadata <- metadata[1:23, ]

# Print
metadata

## # A tibble: 23 × 2
##    `Data Provider`   `The Paleobiology Database`                                
##    <chr>             <chr>                                                      
##  1 Data Source       The Paleobiology Database                                  
##  2 Data License      Creative Commons CC0                                       
##  3 License URL       https://creativecommons.org/publicdomain/zero/1.0/         
##  4 Documentation URL http://paleobiodb.org/data1.2/occs/list_doc.html           
##  5 Data URL          http://paleobiodb.org/data1.2/occs/list.csv?datainfo&rowco…
##  6 Access Time       Fri 2025-02-21 14:41:31 GMT                                
##  7 Title             PBDB Data Service                                          
##  8 Parameters:       <NA>                                                       
##  9 <NA>              base_name,Crocodylia                                       
## 10 <NA>              pgm,gplates,scotese,seton                                  
## # ℹ 13 more rows
…
Code

# What are the ages associated with each interval? Any issues with the date 
# formats?
fossils %>% 
  group_by(early_interval) %>% # Grouping by interval
  distinct(max_ma) %>%  # Pulling out the distinct values
  arrange(early_interval) # Putting list in order to scan for inconsistencies

## # A tibble: 54 × 2
## # Groups:   early_interval [54]
##    early_interval max_ma
##    <chr>           <dbl>
##  1 Arikareean       29.5
##  2 Arshantan        56  
##  3 Bartonian        41.2
##  4 Bridgerian       50.5
##  5 Cf1              56.2
##  6 Cf2              56.2
##  7 Cf3              56.2
##  8 Chadronian       37  
##  9 Chattian         27.8
## 10 Clarkforkian     56.2
## # ℹ 44 more rows

Code

fossils %>% 
  group_by(late_interval) %>%
  distinct(min_ma) %>% 
  arrange(late_interval)

## # A tibble: 39 × 2
## # Groups:   late_interval [21]
##    late_interval   min_ma
##    <chr>            <dbl>
##  1 Bartonian         37.7
##  2 Bridgerian        46.2
##  3 Chattian          23.0
##  4 Clarkforkian      54.9
##  5 Duchesnean        37  
##  6 Early Eocene      47.8
##  7 Early Oligocene   27.8
##  8 Late Eocene       33.9
##  9 Lutetian          41.2
## 10 MN 1              22.4
## # ℹ 29 more rows
…
